<Qucs Schematic 0.0.20>
<Properties>
  <View=319,-79,3016,1610,0.720648,0,60>
  <Grid=10,10,1>
  <DataSet=detector.dat>
  <DataDisplay=detector.dpl>
  <OpenDisplay=1>
  <Script=detector.m>
  <RunScript=0>
  <showFrame=0>
  <FrameText0=Title>
  <FrameText1=Drawn By:>
  <FrameText2=Date:>
  <FrameText3=Revision:>
</Properties>
<Symbol>
</Symbol>
<Components>
  <C C1 1 1010 960 17 -26 0 1 "10 nF" 1 "" 0 "neutral" 0>
  <GND * 5 1010 1020 0 0 0 0>
  <GND * 5 1280 860 0 0 0 0>
  <R R8 0 1260 960 15 -26 0 1 "10k Ohm" 1 "26.85" 0 "0.0" 0 "0.0" 0 "26.85" 0 "european" 0>
  <GND * 5 1260 1020 0 0 0 0>
  <R R9 2 1190 890 -26 -53 1 0 "10k Ohm" 1 "26.85" 0 "0.0" 0 "0.0" 0 "26.85" 0 "european" 0>
  <C C3 1 1120 960 17 -26 0 1 "1nF" 1 "" 0 "neutral" 0>
  <GND * 5 1120 1020 0 0 0 0>
  <VProbe Pr4 1 590 710 28 -31 0 0>
  <GND * 5 600 750 0 0 0 0>
  <R R12 1 460 800 -93 -26 1 1 "50 Ohm" 1 "26.85" 0 "0.0" 0 "0.0" 0 "26.85" 0 "european" 0>
  <GND * 5 460 850 0 0 0 0>
  <GND * 5 580 1020 0 0 0 0>
  <Eqn Eqn1 1 620 410 -31 15 0 0 "dft=abs(Time2Freq(Pr4.Vt, time))" 1 "yes" 0>
  <VProbe Pr1 1 1270 820 28 -31 0 0>
  <GND * 5 780 1020 0 0 0 0>
  <C C4 1 710 890 -26 -55 0 2 "1pF" 1 "" 0 "neutral" 0>
  <Pac P1 1 580 960 -94 -26 1 1 "1" 1 "50 Ohm" 1 "35 dBm" 0 "430 MHz" 0 "26.85" 0>
  <R R15 1 840 70 -26 15 0 0 "1 kOhm" 1 "26.85" 0 "0.0" 0 "0.0" 0 "26.85" 0 "european" 0>
  <R R16 1 960 70 -26 15 0 0 "9 kOhm" 1 "26.85" 0 "0.0" 0 "0.0" 0 "26.85" 0 "european" 0>
  <GND * 5 770 110 0 0 0 0>
  <VProbe Pr5 1 1270 120 28 -31 0 0>
  <GND * 5 1280 170 0 0 0 0>
  <OpAmp OP1 1 950 270 -26 -80 1 0 "1e6" 1 "5 V" 0>
  <.TR TR1 1 450 400 0 66 0 0 "lin" 1 "0" 1 "4us" 1 "40001" 1 "Trapezoidal" 0 "2" 0 "1 ns" 0 "1e-16" 0 "150" 0 "0.001" 0 "1 pA" 0 "1 uV" 0 "26.85" 0 "1e-3" 0 "1e-6" 0 "1" 0 "CroutLU" 0 "no" 0 "yes" 0 "0" 0>
  <R R14 1 780 960 -53 -26 0 3 "1k" 1 "26.85" 0 "0.0" 0 "0.0" 0 "26.85" 0 "european" 0>
  <Diode D1 1 860 890 -26 15 1 2 "5.0e-09 A" 1 "1" 1 "8.68e-13 F" 1 "0.02504" 0 "0.90906 V" 0 "0.5" 0 "0.0 fF" 0 "9.808e-14" 0 "2.0" 0 "0.8622 Ohm" 0 "6.012e-9 s" 0 "0" 0 "0.0" 0 "1.0" 0 "1.0" 0 "100" 0 "1e-07 A" 0 "T" 0 "3.0" 0 "0.92" 0 "0.0" 0 "0.0" 0 "0.0" 0 "0.0" 0 "0.0" 0 "0.0" 0 "26.85" 0 "1.0" 0 "normal" 0>
  <Eqn Eqn2 0 640 250 -31 15 0 0 "T=20" 1 "yes" 0>
  <.SW SW1 1 440 100 0 62 0 0 "TR1" 1 "lin" 1 "T" 1 "20" 1 "100" 1 "20" 1>
</Components>
<Wires>
  <1010 890 1010 930 "" 0 0 0 "">
  <1010 990 1010 1020 "" 0 0 0 "">
  <1260 990 1260 1020 "" 0 0 0 "">
  <1260 890 1260 930 "" 0 0 0 "">
  <1220 890 1260 890 "" 0 0 0 "">
  <1120 990 1120 1020 "" 0 0 0 "">
  <1120 890 1120 930 "" 0 0 0 "">
  <1010 890 1120 890 "" 0 0 0 "">
  <600 730 600 750 "" 0 0 0 "">
  <460 830 460 850 "" 0 0 0 "">
  <580 730 580 750 "" 0 0 0 "">
  <460 750 580 750 "" 0 0 0 "">
  <460 750 460 770 "" 0 0 0 "">
  <1120 890 1130 890 "" 0 0 0 "">
  <580 990 580 1020 "" 0 0 0 "">
  <580 890 580 930 "" 0 0 0 "">
  <580 890 680 890 "" 0 0 0 "">
  <740 890 780 890 "" 0 0 0 "">
  <580 750 580 890 "" 0 0 0 "">
  <1280 840 1280 860 "" 0 0 0 "">
  <1260 840 1260 890 "" 0 0 0 "">
  <780 890 830 890 "" 0 0 0 "">
  <890 890 1010 890 "" 0 0 0 "">
  <870 70 900 70 "" 0 0 0 "">
  <770 70 810 70 "" 0 0 0 "">
  <770 70 770 110 "" 0 0 0 "">
  <900 70 930 70 "" 0 0 0 "">
  <990 70 1170 70 "" 0 0 0 "">
  <1170 70 1170 170 "" 0 0 0 "">
  <1260 140 1260 170 "" 0 0 0 "">
  <1280 140 1280 170 "" 0 0 0 "">
  <1170 170 1170 270 "" 0 0 0 "">
  <1170 170 1260 170 "" 0 0 0 "">
  <900 710 1130 710 "" 0 0 0 "">
  <1130 890 1160 890 "" 0 0 0 "">
  <1130 710 1130 890 "" 0 0 0 "">
  <900 70 900 250 "" 0 0 0 "">
  <900 250 920 250 "" 0 0 0 "">
  <900 290 900 710 "" 0 0 0 "">
  <900 290 920 290 "" 0 0 0 "">
  <990 270 1170 270 "" 0 0 0 "">
  <780 990 780 1020 "" 0 0 0 "">
  <780 890 780 930 "" 0 0 0 "">
</Wires>
<Diagrams>
  <Rect 1440 478 1520 528 3 #c0c0c0 1 00 0 0 5e-08 1e-07 1 -18.2539 2 4.90341 1 -1 0.2 1 315 0 225 "" "" "" "">
	<"Pr4.Vt" #aa0000 2 3 0 0 0>
	  <Mkr 1.2e-08 212 -537 3 0 0>
  </Rect>
  <Rect 1445 1024 1524 484 3 #c0c0c0 1 00 1 0 5e-08 1e-06 1 -0.0133411 0.02 0.146884 1 -1 0.2 1 315 0 225 "" "" "" "">
	<"Pr1.Vt" #0000ff 2 3 0 0 0>
  </Rect>
  <Rect 1440 1531 1529 431 3 #c0c0c0 1 00 1 0 0.2 1 1 -0.1 0.5 1.1 1 -0.1 0.5 1.1 315 0 225 "" "" "" "">
	<"Pr5.Vt" #0000ff 2 3 0 0 0>
  </Rect>
  <Rect 410 1534 900 424 3 #c0c0c0 1 00 1 0 5e+08 7.14143e+09 1 -1 0.5 2.66477 1 -1 0.2 1 315 0 225 "" "" "" "">
	<"dft" #005500 2 3 0 0 0>
	  <Mkr 2.5e+08 129 -385 3 0 0>
	  <Mkr 2.5e+08 207 -234 3 0 0>
  </Rect>
</Diagrams>
<Paintings>
</Paintings>
